﻿Location,Address,Type,Zip codes,Combined Total,Combined Rank,2020 Primary Total,Rank 2020 Primary (out of 52),2020 Runoff Total,Rank 2020 Runoff (out of 57)
Richard and Meg Weekley Community Center - Room 300,"8440 Greenhouse Road, Cypress, 77433",,77433,5303,4,3386,7,1917,8
"Lone Star College Cypress Center - Room 105, 106, 107","19710 Clay Road, Katy, 77449",,77449,4353,11,2636,20,1717,13
Lone Star College Victory Center - VC 102 and VC 120,"4141 Victory Drive, Houston, 77088",,77088,2966,22,1829,28,1137,27
HCC West Loop South - Auditorium,"5601 West Loop South, Houston, 77081",DTV,77081,3109,19,1784,30,1325,22
Bayland Park Community Center - Auditorium,"6400 Bissonnet Street, Houston, 77074",,77074,5088,6,3358,9,1730,12
Trini Mendenhall Community Center - Large auditorium,"1414 Wirt Road, Houston, 77055",,77055,5058,9,3705,4,1353,20
Sunnyside Multi Service Center - Auditorium,"9314 Cullen Boulevard, Houston, 77051",,77051,6176,2,3608,5,2568,2
Hiram Clarke Multi Service Center - Auditorium,"3810 West Fuqua Street, Houston, 77045",,77045,5164,5,2863,15,2301,5
Northeast Multi Service Center - Auditorium,"9720 Spaulding Street, Houston, 77016",,77016,5077,7,3029,12,2048,6
Juergens Hall Community Center - Dance Hall,"26026 Hempstead Highway, Cypress, 77429",24hr on Oct 29,77429,4881,10,3313,10,1568,15